1º Ano/LSD/P/Aula04/Parte2/simulation/qsim/Register_Demo.msim.vcd
$comment
	File created using the following command:
		vcd file Register_Demo.msim.vcd -direction
$end
$date
	Tue Mar 12 11:40:53 2024
$end
$version
	Questa Intel Starter FPGA Edition Version 2021.2
$end
$timescale
	1ps
$end

$scope module register8_vhd_vec_tst $end
$var wire 1 ! clk $end
$var wire 1 " dataIn [7] $end
$var wire 1 # dataIn [6] $end
$var wire 1 $ dataIn [5] $end
$var wire 1 % dataIn [4] $end
$var wire 1 & dataIn [3] $end
$var wire 1 ' dataIn [2] $end
$var wire 1 ( dataIn [1] $end
$var wire 1 ) dataIn [0] $end
$var wire 1 * dataOut [7] $end
$var wire 1 + dataOut [6] $end
$var wire 1 , dataOut [5] $end
$var wire 1 - dataOut [4] $end
$var wire 1 . dataOut [3] $end
$var wire 1 / dataOut [2] $end
$var wire 1 0 dataOut [1] $end
$var wire 1 1 dataOut [0] $end
$var wire 1 2 wrEn $end

$scope module i1 $end
$var wire 1 3 gnd $end
$var wire 1 4 vcc $end
$var wire 1 5 unknown $end
$var wire 1 6 devoe $end
$var wire 1 7 devclrn $end
$var wire 1 8 devpor $end
$var wire 1 9 ww_devoe $end
$var wire 1 : ww_devclrn $end
$var wire 1 ; ww_devpor $end
$var wire 1 < ww_dataIn [7] $end
$var wire 1 = ww_dataIn [6] $end
$var wire 1 > ww_dataIn [5] $end
$var wire 1 ? ww_dataIn [4] $end
$var wire 1 @ ww_dataIn [3] $end
$var wire 1 A ww_dataIn [2] $end
$var wire 1 B ww_dataIn [1] $end
$var wire 1 C ww_dataIn [0] $end
$var wire 1 D ww_clk $end
$var wire 1 E ww_wrEn $end
$var wire 1 F ww_dataOut [7] $end
$var wire 1 G ww_dataOut [6] $end
$var wire 1 H ww_dataOut [5] $end
$var wire 1 I ww_dataOut [4] $end
$var wire 1 J ww_dataOut [3] $end
$var wire 1 K ww_dataOut [2] $end
$var wire 1 L ww_dataOut [1] $end
$var wire 1 M ww_dataOut [0] $end
$var wire 1 N \dataOut[0]~output_o\ $end
$var wire 1 O \dataOut[1]~output_o\ $end
$var wire 1 P \dataOut[2]~output_o\ $end
$var wire 1 Q \dataOut[3]~output_o\ $end
$var wire 1 R \dataOut[4]~output_o\ $end
$var wire 1 S \dataOut[5]~output_o\ $end
$var wire 1 T \dataOut[6]~output_o\ $end
$var wire 1 U \dataOut[7]~output_o\ $end
$var wire 1 V \clk~input_o\ $end
$var wire 1 W \dataIn[0]~input_o\ $end
$var wire 1 X \wrEn~input_o\ $end
$var wire 1 Y \dataOut[0]~reg0_q\ $end
$var wire 1 Z \dataIn[1]~input_o\ $end
$var wire 1 [ \dataOut[1]~reg0_q\ $end
$var wire 1 \ \dataIn[2]~input_o\ $end
$var wire 1 ] \dataOut[2]~reg0_q\ $end
$var wire 1 ^ \dataIn[3]~input_o\ $end
$var wire 1 _ \dataOut[3]~reg0_q\ $end
$var wire 1 ` \dataIn[4]~input_o\ $end
$var wire 1 a \dataOut[4]~reg0_q\ $end
$var wire 1 b \dataIn[5]~input_o\ $end
$var wire 1 c \dataOut[5]~reg0_q\ $end
$var wire 1 d \dataIn[6]~input_o\ $end
$var wire 1 e \dataOut[6]~reg0_q\ $end
$var wire 1 f \dataIn[7]~input_o\ $end
$var wire 1 g \dataOut[7]~reg0_q\ $end
$upscope $end
$upscope $end
$enddefinitions $end
#0
$dumpvars
0!
12
03
14
x5
16
17
18
19
1:
1;
0D
1E
0N
0O
0P
0Q
0R
0S
0T
0U
0V
1W
1X
0Y
1Z
0[
0\
0]
1^
0_
0`
0a
1b
0c
0d
0e
0f
0g
0"
0#
1$
0%
1&
0'
1(
1)
0<
0=
1>
0?
1@
0A
1B
1C
0*
0+
0,
0-
0.
0/
00
01
0F
0G
0H
0I
0J
0K
0L
0M
$end
#5000
02
0E
0X
#10000
12
1!
1"
0$
1'
0(
0)
1E
1D
0C
0B
1A
0>
1<
1f
0b
1\
0Z
0W
1V
1X
1Y
1[
1_
1c
1S
1Q
1O
1N
1H
1J
1L
1M
11
10
1.
1,
#15000
0!
0D
0V
#20000
02
0'
1(
1)
0&
0E
1C
1B
0A
0@
0^
0\
1Z
1W
0X
#30000
0(
1&
1!
1$
1%
0B
1@
1?
1>
1D
1V
1b
1`
1^
0Z
#35000
0!
0D
0V
#40000
0%
12
1'
0"
1A
0?
0<
1E
1X
0f
0`
1\
#45000
02
0E
0X
#50000
12
0'
1(
0$
1#
1E
1B
0A
0>
1=
1d
0b
0\
1Z
1X
#55000
02
0E
0X
#60000
1'
0(
1$
0#
1%
1"
1!
0)
0C
0B
1A
1?
1>
0=
1<
1D
1V
1f
0d
1b
1`
1\
0Z
0W
#70000
1#
0%
0!
1)
12
1C
0?
1=
0D
1E
1X
0V
1d
0`
1W
#75000
02
0E
0X
#80000
1!
0)
1(
0$
0"
1D
0C
1B
0>
0<
0f
0b
1Z
0W
1V
#90000
0!
0(
12
0#
1%
0&
0D
0B
0@
1?
0=
1E
1X
0d
1`
0^
0Z
0V
#95000
1!
1D
1V
0Y
0[
1]
0_
1a
0c
0S
1R
0Q
1P
0O
0N
0H
1I
0J
1K
0L
0M
01
00
1/
0.
1-
0,
#100000
02
1#
0%
1&
1$
0'
0E
0A
1@
0?
1>
1=
1d
1b
0`
1^
0\
0X
#105000
12
1E
1X
#110000
02
1%
0&
1'
1(
1)
1"
0E
1C
1B
1A
0@
1?
1<
1f
1`
0^
1\
1Z
1W
0X
#115000
0!
0D
0V
#120000
1!
12
0%
0$
1D
1E
0?
0>
0b
0`
1X
1V
1Y
1[
1c
1e
1g
1U
1T
1S
1O
1N
1F
1G
1H
1L
1M
11
10
1,
1+
1*
#125000
0!
0D
0V
#130000
1%
1&
0'
0)
0"
0C
0A
1@
1?
0<
0f
1`
1^
0\
0W
#135000
02
0E
0X
#140000
0&
1!
1$
0@
1>
1D
1V
1b
0^
#145000
0!
12
0D
1E
1X
0V
#150000
1!
0%
1)
1"
0(
0#
1D
1C
0B
0?
0=
1<
1f
0d
0`
0Z
1W
1V
0Y
0]
0g
0U
0P
0N
0F
0K
0M
01
0/
0*
#155000
0!
0D
0V
#160000
1%
0)
1(
1#
02
1&
0$
0C
1B
1@
1?
0>
1=
0E
0X
1d
0b
1`
1^
1Z
0W
#170000
0%
0(
0#
12
0&
1$
0"
0B
0@
0?
1>
0=
0<
1E
1X
0f
0d
1b
0`
0^
0Z
#175000
02
1!
0E
1D
1V
0X
#180000
0!
1#
1)
1'
0D
1C
1A
1=
1d
1\
1W
0V
#185000
1!
12
1D
1E
1X
1V
1Y
0[
1]
0a
0R
1P
0O
1N
0I
1K
0L
1M
11
00
1/
0-
#190000
0!
0'
1%
1&
1"
0D
0A
1@
1?
1<
1f
1`
1^
0\
0V
#195000
02
0E
0X
#200000
12
1(
1E
1B
1Z
1X
#205000
02
1!
0E
1D
1V
0X
#210000
1'
0%
0"
0)
0C
1A
0?
0<
0f
0`
1\
0W
#220000
0'
1"
1)
12
0&
1C
0A
0@
1<
1E
1X
1f
0^
0\
1W
#225000
02
0E
0X
#230000
12
1'
0"
1&
1%
0(
0#
0$
1E
0B
1A
1@
1?
0>
0=
0<
0f
0d
0b
1`
1^
1\
0Z
1X
#235000
02
0E
0X
#240000
0'
1"
0&
1(
1#
0)
0!
0C
1B
0A
0@
1=
1<
0D
0V
1f
1d
0^
0\
1Z
0W
#250000
1)
12
0%
1$
1C
0?
1>
1E
1X
1b
0`
1W
#260000
02
1%
0$
1'
0"
0#
1!
0E
1A
1?
0>
0=
0<
1D
1V
0f
0d
0b
1`
1\
0X
#265000
12
1E
1X
#270000
02
0!
0E
0D
0V
0X
#280000
12
1!
1$
1"
1#
0)
1&
0(
1E
1D
0C
0B
1@
1>
1=
1<
1f
1d
1b
1^
0Z
0W
1V
1X
1[
1a
0c
0e
0T
0S
1R
1O
0G
0H
1I
1L
10
1-
0,
0+
#285000
0!
0D
0V
#290000
1!
0$
0"
1)
0%
0'
1D
1C
0A
0?
0>
0<
0f
0b
0`
0\
1W
1V
0Y
0[
1_
1c
1e
1g
1U
1T
1S
1Q
0O
0N
1F
1G
1H
1J
0L
0M
01
00
1.
1,
1+
1*
#300000
1$
1"
0)
1%
1'
02
0#
0C
1A
1?
1>
0=
1<
0E
0X
1f
0d
1b
1`
1\
0W
#310000
0$
1)
0%
12
1#
1C
0?
0>
1=
1E
1X
1d
0b
0`
1W
#320000
0'
0!
0A
0D
0V
0\
#325000
1!
02
1D
0E
0X
1V
#330000
12
1'
0)
1%
0"
0&
1E
0C
1A
0@
1?
0<
0f
1`
0^
1\
0W
1X
#335000
0!
0D
0V
#340000
1!
0%
1&
1$
0#
1(
1D
1B
1@
0?
1>
0=
0d
1b
0`
1^
1Z
1V
0_
0c
0g
0U
0S
0Q
0F
0H
0J
0.
0,
0*
#345000
0!
0D
0V
#350000
1!
1%
0'
1D
0A
1?
1`
0\
1V
1[
1_
0a
1c
0e
0T
1S
0R
1Q
1O
0G
1H
0I
1J
1L
10
1.
0-
1,
0+
#355000
0!
0D
0V
#360000
1'
0$
0(
1)
1"
1C
0B
1A
0>
1<
1f
0b
1\
0Z
1W
#365000
1!
02
1D
0E
0X
1V
#370000
12
1(
0"
0%
1E
1B
0?
0<
0f
0`
1Z
1X
#375000
02
0E
0X
#380000
12
0(
1"
0!
1$
0&
1#
1E
0B
0@
1>
1=
1<
0D
0V
1f
1d
1b
0^
0Z
1X
#390000
02
1(
1&
0#
0)
0E
0C
1B
1@
0=
0d
1^
1Z
0W
0X
#400000
0&
1!
0$
1%
0@
1?
0>
1D
1V
0b
1`
0^
#405000
0!
0D
0V
#410000
1&
12
0(
1)
0'
1C
0B
0A
1@
1E
1X
1^
0\
0Z
1W
#415000
02
0E
0X
#420000
12
1(
0)
1!
0"
1E
0C
1B
0<
1D
1V
0f
1Z
0W
1X
1Y
0[
0]
1a
0c
1g
1U
0S
1R
0P
0O
1N
1F
0H
1I
0K
0L
1M
11
00
0/
1-
0,
1*
#425000
02
0E
0X
#430000
0(
0&
1'
0B
1A
0@
0^
1\
0Z
#440000
1(
0'
1)
0%
1C
1B
0A
0?
0`
0\
1Z
1W
#445000
0!
0D
0V
#450000
1!
1%
12
1"
1#
1D
1?
1=
1<
1E
1X
1f
1d
1`
1V
1[
0_
0a
0g
0U
0R
0Q
1O
0F
0I
0J
1L
10
0.
0-
0*
#455000
0!
0D
0V
#460000
0)
1&
1$
0C
1@
1>
1b
1^
0W
#470000
0&
0%
0"
0@
0?
0<
0f
0`
0^
#475000
1!
1D
1V
0Y
1c
1e
1T
1S
0N
1G
1H
0M
01
1,
1+
#480000
02
0(
0E
0B
0Z
0X
#485000
0!
0D
0V
#490000
1!
12
1(
1%
1"
1'
1D
1E
1B
1A
1?
1<
1f
1`
1\
1Z
1X
1V
0[
0O
0L
00
#495000
0!
02
0D
0E
0X
0V
#500000
12
0%
0"
0'
0$
1E
0A
0?
0>
0<
0f
0b
0`
0\
1X
#505000
02
0E
0X
#510000
1"
0(
0B
1<
1f
0Z
#515000
12
1E
1X
#520000
02
0"
1(
1%
1$
0E
1B
1?
1>
0<
0f
1b
1`
1Z
0X
#525000
1!
1D
1V
#530000
12
1"
0$
1'
0#
1E
1A
0>
0=
1<
1f
0d
0b
1\
1X
#535000
0!
0D
0V
#540000
1!
1$
1#
1D
1>
1=
1d
1b
1V
1[
1]
1a
0c
0e
1g
1U
0T
0S
1R
1P
1O
1F
0G
0H
1I
1K
1L
10
1/
1-
0,
0+
1*
#550000
0!
0"
0'
0(
0%
1&
1)
0D
1C
0B
0A
1@
0?
0<
0f
0`
1^
0\
0Z
1W
0V
#555000
1!
02
1D
0E
0X
1V
#560000
0!
1'
1(
1%
0$
0D
1B
1A
1?
0>
0b
1`
1\
1Z
0V
#570000
1!
0'
0(
1$
12
0)
0#
1D
0C
0B
0A
1>
0=
1E
1X
0d
1b
0\
0Z
0W
1V
1Y
1_
1e
0g
0U
1T
1Q
1N
0F
1G
1J
1M
11
1.
1+
0*
#580000
1'
0$
02
0&
1A
0@
0>
0E
0X
0b
0^
1\
#590000
12
1&
0!
1(
1)
1#
1"
1E
1C
1B
1@
1=
1<
0D
0V
1f
1d
1^
1Z
1W
1X
#600000
1!
0)
0'
1$
1D
0C
0A
1>
1b
0\
0W
1V
1g
1U
1F
1*
#605000
0!
0D
0V
#610000
1!
1)
02
0&
0(
0#
0"
0%
1D
1C
0B
0@
0?
0=
0<
0E
0X
0f
0d
0`
0^
0Z
1W
1V
#615000
12
1E
1X
#620000
02
0!
1(
1%
0$
0E
0D
1B
1?
0>
0b
1`
1Z
0V
0X
#625000
12
1!
1E
1D
1V
1X
0]
0_
0e
0g
0U
0T
0Q
0P
0F
0G
0J
0K
0/
0.
0+
0*
#630000
02
0%
0)
1&
0E
0C
1@
0?
0`
1^
0W
0X
#635000
12
0!
1E
0D
0V
1X
#640000
02
1!
1$
1#
1'
0E
1D
1A
1>
1=
1d
1b
1\
1V
0X
#645000
12
0!
1E
0D
0V
1X
#650000
1!
1"
1D
1<
1f
1V
0Y
1]
1_
0a
1c
1e
1T
1S
0R
1Q
1P
0N
1G
1H
0I
1J
1K
0M
01
1/
1.
0-
1,
1+
#655000
0!
0D
0V
#660000
1!
0"
0'
1%
1)
0(
1D
1C
0B
0A
1?
0<
0f
1`
0\
0Z
1W
1V
1g
1U
1F
1*
#670000
0!
1"
1'
0%
0)
1(
0$
0&
0D
0C
1B
1A
0@
0?
0>
1<
1f
0b
0`
0^
1\
1Z
0W
0V
#680000
1)
1$
1&
02
1C
1@
1>
0E
0X
1b
1^
1W
#685000
1!
1D
1V
#690000
0)
0"
0#
0C
0=
0<
0f
0d
0W
#695000
0!
0D
0V
#700000
1)
1"
0&
12
1%
0(
1C
0B
0@
1?
1<
1E
1X
1f
1`
0^
0Z
1W
#705000
1!
1D
1V
1Y
0[
0_
1a
0e
0T
1R
0Q
0O
1N
0G
1I
0J
0L
1M
11
00
0.
1-
0+
#710000
0!
0)
0"
02
1(
1#
0$
0'
0D
0C
1B
0A
0>
1=
0<
0E
0X
0f
1d
0b
0\
1Z
0W
0V
#715000
1!
12
1D
1E
1X
1V
0Y
1[
0]
0c
1e
0g
0U
1T
0S
0P
1O
0N
0F
1G
0H
0K
1L
0M
01
10
0/
0,
1+
0*
#720000
1)
1"
0(
1&
0%
1C
0B
1@
0?
1<
1f
0`
1^
0Z
1W
#730000
0"
0&
1%
02
0@
1?
0<
0E
0X
0f
1`
0^
#735000
12
1E
1X
#740000
1"
1&
0%
0!
0#
1$
1@
0?
1>
0=
1<
0D
0V
1f
0d
1b
0`
1^
#745000
1!
1D
1V
1Y
0[
1_
0a
1c
0e
1g
1U
0T
1S
0R
1Q
0O
1N
1F
0G
1H
0I
1J
0L
1M
11
00
1.
0-
1,
0+
1*
#750000
0"
1%
1#
0)
1(
1'
0C
1B
1A
1?
1=
0<
0f
1d
1`
1\
1Z
0W
#755000
02
0E
0X
#760000
1"
1)
0(
0'
0$
1C
0B
0A
0>
1<
1f
0b
0\
0Z
1W
#765000
0!
0D
0V
#770000
12
0#
0&
1E
0@
0=
0d
0^
1X
#775000
02
1!
0E
1D
1V
0X
#780000
0!
0"
1'
1$
0D
1A
1>
0<
0f
1b
1\
0V
#790000
1"
0'
0$
1#
0)
1(
0%
0C
1B
0A
0?
0>
1=
1<
1f
1d
0b
0`
0\
1Z
0W
#795000
1!
1D
1V
#800000
1'
1$
12
1&
1A
1@
1>
1E
1X
1b
1^
1\
#810000
0'
02
0&
0!
0(
0B
0A
0@
0E
0D
0V
0X
0^
0\
0Z
#815000
12
1E
1X
#820000
1!
1(
0"
1)
1%
1D
1C
1B
1?
0<
0f
1`
1Z
1W
1V
0Y
0_
1e
1T
0Q
0N
1G
0J
0M
01
0.
1+
#825000
0!
02
0D
0E
0X
0V
#830000
12
0(
1"
0)
1&
0$
1E
0C
0B
1@
0>
1<
1f
0b
1^
0Z
0W
1X
#840000
1(
1)
0&
0#
1C
1B
0@
0=
0d
0^
1Z
1W
#845000
02
1!
0E
1D
1V
0X
#850000
0(
0)
1&
1#
1$
1'
0C
0B
1A
1@
1>
1=
1d
1b
1^
1\
0Z
0W
#860000
0#
0!
0"
0%
0?
0=
0<
0D
0V
0f
0d
0`
#865000
12
1E
1X
#870000
1#
1!
1%
1)
0$
1C
1?
0>
1=
1D
1V
1d
0b
1`
1W
1]
1_
0e
0g
0U
0T
1Q
1P
0F
0G
1J
1K
1/
1.
0+
0*
#875000
02
0E
0X
#880000
12
0#
0!
0%
0)
1"
1(
0&
0'
1E
0C
1B
0A
0@
0?
0=
1<
0D
0V
1f
0d
0`
0^
0\
1Z
0W
1X
#885000
1!
1D
1V
1[
0]
0_
0c
1g
1U
0S
0Q
0P
1O
1F
0H
0J
0K
1L
10
0/
0.
0,
1*
#890000
02
0"
1&
1'
0E
1A
1@
0<
0f
1^
1\
0X
#895000
12
1E
1X
#900000
02
0&
0!
1#
1%
1)
0(
0E
1C
0B
0@
1?
1=
0D
0V
1d
1`
0^
0Z
1W
0X
#905000
12
1E
1X
#910000
02
1&
1!
0#
0%
0)
0E
0C
1@
0?
0=
1D
1V
0d
0`
1^
0W
0X
#915000
12
1E
1X
#920000
0!
1#
1%
1)
1"
0D
1C
1?
1=
1<
1f
1d
1`
1W
0V
#925000
02
0E
0X
#930000
0#
0%
1$
0?
1>
0=
0d
1b
0`
#935000
12
1!
1E
1D
1V
1X
1Y
0[
1]
1_
1c
1S
1Q
1P
0O
1N
1H
1J
1K
0L
1M
11
00
1/
1.
1,
#940000
0!
0$
0D
0>
0b
0V
#945000
02
0E
0X
#950000
1$
1#
1%
0)
0"
0C
1?
1>
1=
0<
0f
1d
1b
1`
0W
#955000
1!
1D
1V
#960000
0#
0%
1"
1(
0'
1B
0A
0?
0=
1<
1f
0d
0`
0\
1Z
#965000
12
1E
1X
#970000
1%
0"
0(
1'
0B
1A
1?
0<
0f
1`
1\
0Z
#975000
02
0!
0E
0D
0V
0X
#980000
0%
1"
1(
0'
0$
0&
1B
0A
0@
0?
0>
1<
1f
0b
0`
0^
0\
1Z
#985000
12
1!
1E
1D
1V
1X
0Y
1[
0]
0_
0c
0S
0Q
0P
1O
0N
0H
0J
0K
1L
0M
01
10
0/
0.
0,
#990000
1%
0(
1$
0B
1?
1>
1b
1`
0Z
#995000
02
0E
0X
