1º Ano/LSD/P/Aula04/Parte1/simulation/qsim/FlipFlopD_Demo.msim.vcd
$comment
	File created using the following command:
		vcd file FlipFlopD_Demo.msim.vcd -direction
$end
$date
	Tue Mar 12 11:06:03 2024
$end
$version
	Questa Intel Starter FPGA Edition Version 2021.2
$end
$timescale
	1ps
$end

$scope module flipflopd_vhd_vec_tst $end
$var wire 1 ! clk $end
$var wire 1 " d $end
$var wire 1 # q $end
$var wire 1 $ reset $end
$var wire 1 % set $end

$scope module i1 $end
$var wire 1 & gnd $end
$var wire 1 ' vcc $end
$var wire 1 ( unknown $end
$var wire 1 ) devoe $end
$var wire 1 * devclrn $end
$var wire 1 + devpor $end
$var wire 1 , ww_devoe $end
$var wire 1 - ww_devclrn $end
$var wire 1 . ww_devpor $end
$var wire 1 / ww_clk $end
$var wire 1 0 ww_set $end
$var wire 1 1 ww_reset $end
$var wire 1 2 ww_d $end
$var wire 1 3 ww_q $end
$var wire 1 4 \q~output_o\ $end
$var wire 1 5 \clk~input_o\ $end
$var wire 1 6 \set~input_o\ $end
$var wire 1 7 \d~input_o\ $end
$var wire 1 8 \reset~input_o\ $end
$var wire 1 9 \q~0_combout\ $end
$var wire 1 : \q~reg0_q\ $end
$upscope $end
$upscope $end
$enddefinitions $end
#0
$dumpvars
1!
1"
0#
0$
1%
0&
1'
x(
1)
1*
1+
1,
1-
1.
1/
10
01
12
03
04
15
16
17
08
19
0:
$end
#10000
0!
0"
1$
0%
0/
02
11
00
06
18
07
05
09
#15000
1!
1%
1/
10
16
15
#20000
0!
0/
05
#25000
0%
00
06
#30000
1%
1!
0$
10
1/
01
08
15
16
19
#35000
0!
0/
05
#40000
1!
1$
1/
11
18
15
1:
09
14
13
1#
#45000
0!
0/
05
#50000
1!
0%
1/
00
06
15
0:
04
03
0#
#55000
0!
1%
0/
10
16
05
#60000
1!
0$
1/
01
08
15
19
#70000
0!
1$
1"
0/
11
12
17
18
05
09
#75000
1!
0%
1/
00
06
15
#80000
0"
02
07
#85000
1%
10
16
#90000
1"
0!
0$
12
0/
01
08
05
17
19
#95000
0%
00
06
#100000
1%
0"
1!
1$
10
02
1/
11
18
15
07
16
1:
09
14
13
1#
#105000
0!
0/
05
#110000
1"
0$
12
01
08
17
19
#120000
1$
1!
11
1/
15
18
09
#125000
0!
0/
05
#130000
0$
0"
01
02
07
08
19
#140000
1$
1"
11
12
17
18
09
#145000
1!
0%
1/
00
06
15
0:
04
03
0#
#150000
0!
0"
0/
02
07
05
#160000
1!
1"
1%
0$
1/
12
10
01
08
16
17
15
19
#170000
0%
1$
00
11
18
06
09
#175000
1%
10
16
#180000
0%
0!
0"
00
0/
02
07
05
06
#185000
1%
1!
10
1/
15
16
#190000
1"
0$
12
01
08
17
19
#200000
0"
0%
02
00
06
07
09
#205000
1%
0!
10
0/
05
16
19
#210000
1"
1$
12
11
18
17
09
#220000
0"
0$
02
01
08
07
19
#230000
1"
12
17
#235000
0%
00
06
#240000
1$
11
18
09
#245000
1%
1!
10
1/
15
16
#250000
0!
0"
0/
02
07
05
#260000
1"
0%
0$
12
00
01
08
06
17
19
#265000
1%
1!
10
1/
15
16
1:
14
13
1#
#270000
0!
1$
0/
11
18
05
09
#275000
0%
00
06
#280000
1%
0"
10
02
07
16
#285000
0%
1!
00
1/
15
06
0:
04
03
0#
#290000
0!
0$
0/
01
08
05
#295000
1!
1/
15
#300000
1$
1%
1"
11
10
12
17
16
18
#310000
0$
0!
01
0/
05
08
19
#315000
0%
00
06
#320000
1%
10
16
#330000
0%
1$
1!
0"
00
11
1/
02
07
15
18
06
1:
09
14
13
1#
#335000
0!
0/
05
#345000
1%
10
16
#350000
0%
1!
1"
00
1/
12
17
15
06
0:
04
03
0#
#355000
1%
0!
10
0/
05
16
#360000
0%
1!
0"
0$
00
1/
02
01
08
07
15
06
#365000
1%
0!
10
0/
05
16
19
#370000
1"
1$
12
11
18
17
09
#375000
0%
00
06
#380000
0$
01
08
19
#385000
1%
1!
10
1/
15
16
1:
14
13
1#
#390000
0%
0!
00
0/
05
06
#395000
1!
1/
15
#400000
0"
02
07
09
#405000
0!
0/
05
#410000
1!
1%
1/
10
16
15
0:
19
04
03
0#
#420000
0!
0/
05
#425000
1!
0%
1/
00
06
15
1:
09
14
13
1#
#430000
0!
1"
1$
0/
12
11
18
17
05
#435000
1%
10
16
#440000
0%
0"
0$
00
02
01
08
07
06
#445000
1%
10
16
19
#450000
1$
11
18
09
#460000
0$
1"
1!
01
12
1/
15
17
08
19
0:
04
03
0#
#465000
0%
00
06
#470000
1%
1$
0"
0!
10
11
02
0/
05
07
18
16
09
#475000
1!
1/
15
#480000
0!
0%
0/
00
06
05
#485000
1!
1%
1/
10
16
15
#490000
0!
0$
1"
0/
01
12
17
08
05
19
#500000
1!
1/
15
1:
14
13
1#
#505000
0%
00
06
#510000
1%
0"
10
02
07
16
#515000
0%
00
06
09
#520000
1%
10
16
19
#525000
0!
0/
05
#535000
1!
0%
1/
00
06
15
09
#540000
0!
1%
1"
0/
10
12
17
16
05
19
#545000
1!
1/
15
#555000
0!
0/
05
#560000
0%
1$
00
11
18
06
09
#565000
1!
1/
15
0:
04
03
0#
#570000
0"
02
07
#580000
1"
0$
12
01
08
17
19
#585000
0!
1%
0/
10
16
05
#590000
1!
0%
1$
1/
00
11
18
06
15
1:
09
14
13
1#
#595000
0!
1%
0/
10
16
05
#605000
1!
0%
1/
00
06
15
0:
04
03
0#
#610000
0$
0"
01
02
07
08
#615000
1%
10
16
19
#620000
1"
0!
12
0/
05
17
#625000
1!
0%
1/
00
06
15
1:
14
13
1#
#630000
1%
0"
10
02
07
16
#645000
0!
0/
05
#650000
1!
0%
1"
1/
00
12
17
06
15
#655000
0!
1%
0/
10
16
05
#660000
0%
0"
1$
00
02
11
18
07
06
09
#665000
1%
1!
10
1/
15
16
0:
04
03
0#
#670000
0!
1"
0/
12
17
05
#675000
1!
0%
1/
00
06
15
#680000
0!
1%
0/
10
16
05
#685000
1!
1/
15
#690000
0"
0$
02
01
08
07
19
#695000
0%
00
06
09
#700000
1"
1$
0!
12
11
0/
05
18
17
#705000
1%
10
16
#715000
0%
1!
00
1/
15
06
#720000
1%
0!
10
0/
05
16
#725000
1!
1/
15
#730000
0!
0/
05
#735000
1!
0%
1/
00
06
15
#740000
1%
0"
0$
10
02
01
08
07
16
19
#745000
0%
0!
00
0/
05
06
09
#750000
1!
1"
1/
12
17
15
19
#755000
1%
10
16
#760000
0%
0!
00
0/
05
06
#765000
1!
1/
15
1:
14
13
1#
#775000
0!
1%
0/
10
16
05
#780000
1!
0"
1$
1/
02
11
18
07
15
09
#785000
0!
0/
05
#790000
1"
12
17
#800000
0"
0%
02
00
06
07
#805000
1%
10
16
#810000
1!
1/
15
0:
04
03
0#
#815000
0%
00
06
#820000
1%
10
16
#825000
0!
0/
05
#830000
1!
1/
15
#835000
0%
00
06
#840000
1%
0!
0$
10
0/
01
08
05
16
19
#845000
0%
00
06
09
#850000
1!
1"
1/
12
17
15
19
#855000
1%
10
16
#860000
0!
1$
0/
11
18
05
09
#865000
1!
0%
1/
00
06
15
#870000
1%
0$
10
01
08
16
19
#875000
0%
0!
00
0/
05
06
#880000
1%
1!
1$
10
1/
11
18
15
16
1:
09
14
13
1#
#885000
0%
00
06
#890000
1%
10
16
#895000
0%
0!
00
0/
05
06
#900000
1%
0$
0"
10
01
02
07
08
16
19
#905000
0%
00
06
09
#910000
1%
1$
1!
10
11
1/
15
18
16
0:
04
03
0#
#920000
0%
0!
1"
00
0/
12
17
05
06
#925000
1%
10
16
#930000
0%
1!
0$
00
1/
01
08
15
06
19
#935000
1%
0!
10
0/
05
16
#940000
1!
0"
1/
02
07
15
1:
14
13
1#
#950000
0!
0%
0/
00
06
05
09
#960000
1"
1$
12
11
18
17
#965000
1%
10
16
#975000
0%
1!
00
1/
15
06
0:
04
03
0#
#980000
1%
0!
0"
10
0/
02
07
05
16
#985000
0%
00
06
#990000
1%
1"
10
12
17
16
